{
  "name": "",
  "css_prefix_text": "icon-",
  "css_use_suffix": false,
  "hinting": true,
  "units_per_em": 1000,
  "ascent": 850,
  "glyphs": [
    {
      "uid": "1c4068ed75209e21af36017df8871802",
      "css": "down-big",
      "code": 59392,
      "src": "fontawesome"
    },
    {
      "uid": "95376bf082bfec6ce06ea1cda7bd7ead",
      "css": "up-big",
      "code": 59393,
      "src": "fontawesome"
    },
    {
      "uid": "0d20938846444af8deb1920dc85a29fb",
      "css": "logout",
      "code": 59394,
      "src": "fontawesome"
    },
    {
      "uid": "0b28050bac9d3facf2f0226db643ece0",
      "css": "pause",
      "code": 59395,
      "src": "fontawesome"
    },
    {
      "uid": "ce06b5805120d0c2f8d60cd3f1a4fdb5",
      "css": "play",
      "code": 59396,
      "src": "fontawesome"
    },
    {
      "uid": "d870630ff8f81e6de3958ecaeac532f2",
      "css": "left-open",
      "code": 59397,
      "src": "fontawesome"
    },
    {
      "uid": "399ef63b1e23ab1b761dfbb5591fa4da",
      "css": "right-open",
      "code": 59398,
      "src": "fontawesome"
    },
    {
      "uid": "474656633f79ea2f1dad59ff63f6bf07",
      "css": "star",
      "code": 59399,
      "src": "fontawesome"
    },
    {
      "uid": "d17030afaecc1e1c22349b99f3c4992a",
      "css": "star-empty",
      "code": 59400,
      "src": "fontawesome"
    },
    {
      "uid": "44e04715aecbca7f266a17d5a7863c68",
      "css": "plus",
      "code": 59401,
      "src": "fontawesome"
    },
    {
      "uid": "5211af474d3a9848f67f945e2ccaf143",
      "css": "cancel",
      "code": 59402,
      "src": "fontawesome"
    },
    {
      "uid": "12f4ece88e46abd864e40b35e05b11cd",
      "css": "ok",
      "code": 59403,
      "src": "fontawesome"
    },
    {
      "uid": "85528017f1e6053b2253785c31047f44",
      "css": "comment",
      "code": 59404,
      "src": "fontawesome"
    },
    {
      "uid": "671f29fa10dda08074a4c6a341bb4f39",
      "css": "bell-alt",
      "code": 61683,
      "src": "fontawesome"
    },
    {
      "uid": "cd21cbfb28ad4d903cede582157f65dc",
      "css": "bell",
      "code": 59405,
      "src": "fontawesome"
    },
    {
      "uid": "9c1376672bb4f1ed616fdd78a23667e9",
      "css": "comment-empty",
      "code": 61669,
      "src": "fontawesome"
    },
    {
      "uid": "c97bfbcfb31e74be0653d8551c89a40f",
      "css": "firefox",
      "code": 62057,
      "src": "fontawesome"
    },
    {
      "uid": "bd7fd67bed189448225cad0fe4ef3d7c",
      "css": "chrome",
      "code": 62056,
      "src": "fontawesome"
    },
    {
      "uid": "d7271d490b71df4311e32cdacae8b331",
      "css": "home",
      "code": 59406,
      "src": "fontawesome"
    },
    {
      "uid": "381da2c2f7fd51f8de877c044d7f439d",
      "css": "picture",
      "code": 59407,
      "src": "fontawesome"
    },
    {
      "uid": "872d9516df93eb6b776cc4d94bd97dac",
      "css": "video",
      "code": 59408,
      "src": "fontawesome"
    },
    {
      "uid": "130380e481a7defc690dfb24123a1f0c",
      "css": "circle",
      "code": 61713,
      "src": "fontawesome"
    },
    {
      "uid": "422e07e5afb80258a9c4ed1706498f8a",
      "css": "circle-empty",
      "code": 61708,
      "src": "fontawesome"
    },
    {
      "uid": "f85affb51c357be83d187344c8c6e35c",
      "css": "diamond",
      "code": 61977,
      "src": "fontawesome"
    }
  ]
}